{
  "schema": {
    "request": {
      "url" : "http://localhost:3000/graphql",
      "method" : "GET",
      "postIntrospectionQuery" : true,
      "options" : {
        "headers": {
          "user-agent" : "JS GraphQL"
        }
      }
    }
  },
  "endpoints" : [
    {
      "name": "Default (http://localhost:3333/graphql)",
      "url": "http://localhost:3000/graphql",
      "options" : {
        "headers": {
          "user-agent" : "JS GraphQL"
        }
      }
    }
  ]
}
